{
  "estatus": 0,
  "descripcion": "",
  "datos": {
    "estados": [
      {
        "id": "AS",
        "descripcion": "AGUASCALIENTES"
      },
      {
        "id": "BC",
        "descripcion": "BAJA CALIFORNIA"
      },
      {
        "id": "BS",
        "descripcion": "BAJA CALIFORNIA SUR"
      },
      {
        "id": "CC",
        "descripcion": "CAMPECHE"
      },
      {
        "id": "CH",
        "descripcion": "CHIHUAHUA"
      },
      {
        "id": "CL",
        "descripcion": "COAHUILA"
      },
      {
        "id": "CM",
        "descripcion": "COLIMA"
      },
      {
        "id": "CS",
        "descripcion": "CHIAPAS"
      },
      {
        "id": "DF",
        "descripcion": "CIUDAD DE MÉXICO"
      },
      {
        "id": "DG",
        "descripcion": "DURANGO"
      },
      {
        "id": "GT",
        "descripcion": "GUANAJUATO"
      },
      {
        "id": "GR",
        "descripcion": "GUERRERO"
      },
      {
        "id": "HG",
        "descripcion": "HIDALGO"
      },
      {
        "id": "JC",
        "descripcion": "JALISCO"
      },
      {
        "id": "MC",
        "descripcion": "ESTADO DE MEXICO"
      },
      {
        "id": "MN",
        "descripcion": "MICHOACAN"
      },
      {
        "id": "MS",
        "descripcion": "MORELOS"
      },
      {
        "id": "NL",
        "descripcion": "NUEVO LEON"
      },
      {
        "id": "NT",
        "descripcion": "NAYARIT"
      },
      {
        "id": "OC",
        "descripcion": "OAXACA"
      },
      {
        "id": "PL",
        "descripcion": "PUEBLA"
      },
      {
        "id": "QR",
        "descripcion": "QUINTANA ROO"
      },
      {
        "id": "QT",
        "descripcion": "QUERETARO"
      },
      {
        "id": "SL",
        "descripcion": "SINALOA"
      },
      {
        "id": "SP",
        "descripcion": "SAN LUIS POTOSI"
      },
      {
        "id": "SR",
        "descripcion": "SONORA"
      },
      {
        "id": "TC",
        "descripcion": "TABASCO"
      },
      {
        "id": "TL",
        "descripcion": "TLAXCALA"
      },
      {
        "id": "TS",
        "descripcion": "TAMAULIPAS"
      },
      {
        "id": "VZ",
        "descripcion": "VERACRUZ"
      },
      {
        "id": "YN",
        "descripcion": "YUCATAN"
      },
      {
        "id": "ZS",
        "descripcion": "ZACATECAS"
      }
    ],

    "paises": [
      {
        "id": "001",
        "descripcion": "ESTADOS UNIDOS"
      },
      {
        "id": "007",
        "descripcion": "RUSIA"
      },
      {
        "id": "020",
        "descripcion": "EGIPTO"
      },
      {
        "id": "022",
        "descripcion": "TIMOR-LESTE"
      },
      {
        "id": "023",
        "descripcion": "AFGHANISTAN"
      },
      {
        "id": "024",
        "descripcion": "GIBRALTAR"
      },
      {
        "id": "025",
        "descripcion": "SWAZILAND"
      },
      {
        "id": "026",
        "descripcion": "TAJIKISTAN"
      },
      {
        "id": "027",
        "descripcion": "SUDAFRICA"
      },
      {
        "id": "030",
        "descripcion": "GRECIA"
      },
      {
        "id": "031",
        "descripcion": "HOLANDA -PAISES BAJOS-"
      },
      {
        "id": "032",
        "descripcion": "BELGICA"
      },
      {
        "id": "033",
        "descripcion": "FRANCIA"
      },
      {
        "id": "034",
        "descripcion": "ESPANA"
      },
      {
        "id": "036",
        "descripcion": "HUNGRIA"
      },
      {
        "id": "039",
        "descripcion": "ITALIA"
      },
      {
        "id": "040",
        "descripcion": "RUMANIA"
      },
      {
        "id": "041",
        "descripcion": "SUIZA"
      },
      {
        "id": "042",
        "descripcion": "INGLATERRA"
      },
      {
        "id": "043",
        "descripcion": "AUSTRIA"
      },
      {
        "id": "044",
        "descripcion": "REINO UNIDO"
      },
      {
        "id": "045",
        "descripcion": "DINAMARCA"
      },
      {
        "id": "046",
        "descripcion": "SUECIA"
      },
      {
        "id": "047",
        "descripcion": "NORUEGA"
      },
      {
        "id": "048",
        "descripcion": "POLONIA"
      },
      {
        "id": "049",
        "descripcion": "ALEMANIA"
      },
      {
        "id": "050",
        "descripcion": "NICARAGUA"
      },
      {
        "id": "051",
        "descripcion": "PERU"
      },
      {
        "id": "053",
        "descripcion": "CUBA"
      },
      {
        "id": "054",
        "descripcion": "ARGENTINA"
      },
      {
        "id": "055",
        "descripcion": "BRASIL"
      },
      {
        "id": "056",
        "descripcion": "CHILE"
      },
      {
        "id": "057",
        "descripcion": "COLOMBIA"
      },
      {
        "id": "058",
        "descripcion": "REPUBLICA DE VENEZUELA BOLIVARIANA"
      },
      {
        "id": "059",
        "descripcion": "ANTILLAS HOLANDESAS"
      },
      {
        "id": "060",
        "descripcion": "MALASIA"
      },
      {
        "id": "061",
        "descripcion": "AUSTRALIA"
      },
      {
        "id": "062",
        "descripcion": "INDONESIA"
      },
      {
        "id": "063",
        "descripcion": "FILIPINAS"
      },
      {
        "id": "064",
        "descripcion": "NUEVA ZELANDA"
      },
      {
        "id": "065",
        "descripcion": "SINGAPUR"
      },
      {
        "id": "066",
        "descripcion": "TAILANDIA"
      },
      {
        "id": "081",
        "descripcion": "JAPON"
      },
      {
        "id": "082",
        "descripcion": "REPUBLICA DE COREA DEL SUR"
      },
      {
        "id": "084",
        "descripcion": "VIETNAM"
      },
      {
        "id": "086",
        "descripcion": "CHINA"
      },
      {
        "id": "089",
        "descripcion": "BIRMANIA"
      },
      {
        "id": "090",
        "descripcion": "TURQUIA"
      },
      {
        "id": "091",
        "descripcion": "INDIA"
      },
      {
        "id": "092",
        "descripcion": "PAKISTAN"
      },
      {
        "id": "094",
        "descripcion": "SRI LANKA"
      },
      {
        "id": "095",
        "descripcion": "MYANMAR"
      },
      {
        "id": "098",
        "descripcion": "IRAN"
      },
      {
        "id": "101",
        "descripcion": "CANADA"
      },
      {
        "id": "107",
        "descripcion": "KAZAJSTAN"
      },
      {
        "id": "122",
        "descripcion": "BAHAMAS"
      },
      {
        "id": "124",
        "descripcion": "BARBADOS"
      },
      {
        "id": "126",
        "descripcion": "ANGUILLA"
      },
      {
        "id": "128",
        "descripcion": "ANTIGUA Y BARBUDA"
      },
      {
        "id": "130",
        "descripcion": "ISLAS VIRGENES AMERICANAS"
      },
      {
        "id": "134",
        "descripcion": "ISLAS CAIMAN"
      },
      {
        "id": "139",
        "descripcion": "VATICANO"
      },
      {
        "id": "141",
        "descripcion": "LIECHTENSTEIN"
      },
      {
        "id": "144",
        "descripcion": "ESCOCIA"
      },
      {
        "id": "162",
        "descripcion": "ISLA DE NAVIDAD"
      },
      {
        "id": "164",
        "descripcion": "TURKS Y CAICOS"
      },
      {
        "id": "166",
        "descripcion": "ISLAS COCOS O KELLING"
      },
      {
        "id": "167",
        "descripcion": "MONSERRAT"
      },
      {
        "id": "169",
        "descripcion": "COMORES"
      },
      {
        "id": "175",
        "descripcion": "DOMINICA"
      },
      {
        "id": "177",
        "descripcion": "PUERTO RICO"
      },
      {
        "id": "178",
        "descripcion": "SANTA LUCIA"
      },
      {
        "id": "180",
        "descripcion": "GRANADA"
      },
      {
        "id": "184",
        "descripcion": "ISLAS VIRGENES BRITANICAS"
      },
      {
        "id": "186",
        "descripcion": "SAN CRISTOBAL Y NEVIS"
      },
      {
        "id": "187",
        "descripcion": "JAMAICA"
      },
      {
        "id": "188",
        "descripcion": "TRINIDAD Y TOBAGO"
      },
      {
        "id": "189",
        "descripcion": "REPUBLICA DOMINICANA"
      },
      {
        "id": "207",
        "descripcion": "UZBEKISTAN"
      },
      {
        "id": "212",
        "descripcion": "MARRUECOS"
      },
      {
        "id": "213",
        "descripcion": "ARGELIA"
      },
      {
        "id": "216",
        "descripcion": "TUNEZ"
      },
      {
        "id": "218",
        "descripcion": "LIBIA"
      },
      {
        "id": "220",
        "descripcion": "GAMBIA"
      },
      {
        "id": "221",
        "descripcion": "SENEGAL"
      },
      {
        "id": "222",
        "descripcion": "MAURITANIA"
      },
      {
        "id": "223",
        "descripcion": "MALI"
      },
      {
        "id": "224",
        "descripcion": "GUINEA"
      },
      {
        "id": "225",
        "descripcion": "COSTA DE MARFIL"
      },
      {
        "id": "226",
        "descripcion": "BURKINA FASO"
      },
      {
        "id": "227",
        "descripcion": "NIGER"
      },
      {
        "id": "228",
        "descripcion": "TOGO"
      },
      {
        "id": "229",
        "descripcion": "BENIN"
      },
      {
        "id": "230",
        "descripcion": "MAURICIO"
      },
      {
        "id": "231",
        "descripcion": "LIBERIA"
      },
      {
        "id": "232",
        "descripcion": "SIERRA LEONA"
      },
      {
        "id": "233",
        "descripcion": "GHANA"
      },
      {
        "id": "234",
        "descripcion": "NIGERIA"
      },
      {
        "id": "235",
        "descripcion": "CHAD"
      },
      {
        "id": "236",
        "descripcion": "REPUBLICA CENTROAFRICANA"
      },
      {
        "id": "237",
        "descripcion": "CAMERUN"
      },
      {
        "id": "238",
        "descripcion": "CABO VERDE"
      },
      {
        "id": "239",
        "descripcion": "SANTO TOME Y PRINCIPE"
      },
      {
        "id": "240",
        "descripcion": "GUINEA ECUATORIAL"
      },
      {
        "id": "241",
        "descripcion": "GABON"
      },
      {
        "id": "242",
        "descripcion": "REPUBLICA DEL CONGO"
      },
      {
        "id": "243",
        "descripcion": "REPUBLICA DEMOCRATICA DEL CONGO -ZAIRE-"
      },
      {
        "id": "244",
        "descripcion": "ANGOLA"
      },
      {
        "id": "246",
        "descripcion": "DIEGO GARCIA"
      },
      {
        "id": "247",
        "descripcion": "ASCENCION"
      },
      {
        "id": "248",
        "descripcion": "ISLAS SEYCHELLES"
      },
      {
        "id": "249",
        "descripcion": "SUDAN"
      },
      {
        "id": "250",
        "descripcion": "RUANDA"
      },
      {
        "id": "251",
        "descripcion": "ETIOPIA"
      },
      {
        "id": "252",
        "descripcion": "SOMALIA"
      },
      {
        "id": "253",
        "descripcion": "DJIBOUTI"
      },
      {
        "id": "254",
        "descripcion": "KENIA"
      },
      {
        "id": "255",
        "descripcion": "TANZANIA"
      },
      {
        "id": "256",
        "descripcion": "UGANDA"
      },
      {
        "id": "257",
        "descripcion": "BURUNDI"
      },
      {
        "id": "258",
        "descripcion": "MOZAMBIQUE"
      },
      {
        "id": "260",
        "descripcion": "ZAMBIA"
      },
      {
        "id": "261",
        "descripcion": "MADAGASCAR"
      },
      {
        "id": "262",
        "descripcion": "REUNION"
      },
      {
        "id": "263",
        "descripcion": "ZIMBABWE"
      },
      {
        "id": "264",
        "descripcion": "NAMIBIA"
      },
      {
        "id": "265",
        "descripcion": "MALAWI"
      },
      {
        "id": "266",
        "descripcion": "LESOTHO"
      },
      {
        "id": "267",
        "descripcion": "BOTSWANA"
      },
      {
        "id": "268",
        "descripcion": "SWAZILANDIA"
      },
      {
        "id": "269",
        "descripcion": "MAYOTTE"
      },
      {
        "id": "290",
        "descripcion": "SANTA ELENA"
      },
      {
        "id": "291",
        "descripcion": "ERITEA"
      },
      {
        "id": "297",
        "descripcion": "ARUBA"
      },
      {
        "id": "298",
        "descripcion": "ISLAS FEROE"
      },
      {
        "id": "299",
        "descripcion": "GROENLANDIA"
      },
      {
        "id": "351",
        "descripcion": "PORTUGAL"
      },
      {
        "id": "352",
        "descripcion": "LUXEMBURGO"
      },
      {
        "id": "353",
        "descripcion": "IRLANDA"
      },
      {
        "id": "354",
        "descripcion": "ISLANDIA"
      },
      {
        "id": "355",
        "descripcion": "ALBANIA"
      },
      {
        "id": "356",
        "descripcion": "MALTA"
      },
      {
        "id": "357",
        "descripcion": "CHIPRE"
      },
      {
        "id": "358",
        "descripcion": "FINLANDIA"
      },
      {
        "id": "359",
        "descripcion": "BULGARIA"
      },
      {
        "id": "370",
        "descripcion": "LITUANIA"
      },
      {
        "id": "371",
        "descripcion": "LETONIA"
      },
      {
        "id": "372",
        "descripcion": "ESTONIA"
      },
      {
        "id": "373",
        "descripcion": "MOLDAVIA"
      },
      {
        "id": "374",
        "descripcion": "ARMENIA"
      },
      {
        "id": "375",
        "descripcion": "BIELORRUSIA"
      },
      {
        "id": "376",
        "descripcion": "ANDORRA"
      },
      {
        "id": "377",
        "descripcion": "MONACO"
      },
      {
        "id": "378",
        "descripcion": "SAN MARINO"
      },
      {
        "id": "380",
        "descripcion": "UCRANIA"
      },
      {
        "id": "381",
        "descripcion": "SERBIA (YUGOSLAVIA)"
      },
      {
        "id": "382",
        "descripcion": "MONTENEGRO"
      },
      {
        "id": "385",
        "descripcion": "CROACIA"
      },
      {
        "id": "386",
        "descripcion": "ESLOVENIA"
      },
      {
        "id": "387",
        "descripcion": "BOSNIA"
      },
      {
        "id": "389",
        "descripcion": "MACEDONIA"
      },
      {
        "id": "420",
        "descripcion": "REPUBLICA CHECA"
      },
      {
        "id": "421",
        "descripcion": "REPUBLICA ESLOVACA"
      },
      {
        "id": "441",
        "descripcion": "BERMUDAS"
      },
      {
        "id": "500",
        "descripcion": "ISLAS MALVINAS"
      },
      {
        "id": "501",
        "descripcion": "BELICE"
      },
      {
        "id": "502",
        "descripcion": "GUATEMALA"
      },
      {
        "id": "503",
        "descripcion": "EL SALVADOR"
      },
      {
        "id": "504",
        "descripcion": "HONDURAS"
      },
      {
        "id": "506",
        "descripcion": "COSTA RICA"
      },
      {
        "id": "507",
        "descripcion": "PANAMA"
      },
      {
        "id": "508",
        "descripcion": "SAN PEDRO Y MIQUELON"
      },
      {
        "id": "509",
        "descripcion": "HAITI"
      },
      {
        "id": "574",
        "descripcion": "ISLA NORFOLK"
      },
      {
        "id": "590",
        "descripcion": "GUADALUPE"
      },
      {
        "id": "591",
        "descripcion": "ESTADO DE BOLIVIA PLURINACIONAL"
      },
      {
        "id": "592",
        "descripcion": "GUYANA"
      },
      {
        "id": "593",
        "descripcion": "ECUADOR"
      },
      {
        "id": "594",
        "descripcion": "GUAYANA FRANCESA"
      },
      {
        "id": "595",
        "descripcion": "PARAGUAY"
      },
      {
        "id": "596",
        "descripcion": "MARTINICA"
      },
      {
        "id": "597",
        "descripcion": "SURINAM"
      },
      {
        "id": "598",
        "descripcion": "URUGUAY"
      },
      {
        "id": "599",
        "descripcion": "CURAZAO"
      },
      {
        "id": "612",
        "descripcion": "PITCAIRN"
      },
      {
        "id": "670",
        "descripcion": "ISLAS MARIANAS"
      },
      {
        "id": "671",
        "descripcion": "GUAM"
      },
      {
        "id": "672",
        "descripcion": "TERRITORIOS EXT. AUSTRALIA"
      },
      {
        "id": "673",
        "descripcion": "BRUNEI"
      },
      {
        "id": "674",
        "descripcion": "NAURU"
      },
      {
        "id": "675",
        "descripcion": "PAPUA NUEVA GUINEA"
      },
      {
        "id": "676",
        "descripcion": "TONGA"
      },
      {
        "id": "677",
        "descripcion": "SALOMON"
      },
      {
        "id": "678",
        "descripcion": "VANUATO"
      },
      {
        "id": "679",
        "descripcion": "ISLAS FIJI"
      },
      {
        "id": "680",
        "descripcion": "PALAU"
      },
      {
        "id": "681",
        "descripcion": "WALLIS Y FUTUNA"
      },
      {
        "id": "682",
        "descripcion": "ISLAS COOK"
      },
      {
        "id": "683",
        "descripcion": "NIUE"
      },
      {
        "id": "684",
        "descripcion": "SAMOA AMERICANA"
      },
      {
        "id": "685",
        "descripcion": "SAMOA OCCIDENTAL"
      },
      {
        "id": "686",
        "descripcion": "KIRIBATI"
      },
      {
        "id": "687",
        "descripcion": "NUEVA CALEDONIA"
      },
      {
        "id": "688",
        "descripcion": "TUVALO"
      },
      {
        "id": "689",
        "descripcion": "POLINESIA FRANCESA -TAHITI-"
      },
      {
        "id": "691",
        "descripcion": "MICRONESIA"
      },
      {
        "id": "692",
        "descripcion": "ISLAS MARSHALL"
      },
      {
        "id": "744",
        "descripcion": "SVALBARD Y JAN MAYEN"
      },
      {
        "id": "772",
        "descripcion": "TOKELAU"
      },
      {
        "id": "809",
        "descripcion": "SAN VICENTE Y GRANADI"
      },
      {
        "id": "850",
        "descripcion": "REPUBLICA POPULAR DE COREA"
      },
      {
        "id": "852",
        "descripcion": "HONG KONG"
      },
      {
        "id": "853",
        "descripcion": "MACAO"
      },
      {
        "id": "855",
        "descripcion": "CAMBOYA"
      },
      {
        "id": "856",
        "descripcion": "LAOS"
      },
      {
        "id": "880",
        "descripcion": "BANGLADESH"
      },
      {
        "id": "886",
        "descripcion": "TAIWAN"
      },
      {
        "id": "960",
        "descripcion": "MALDIVAS"
      },
      {
        "id": "961",
        "descripcion": "LIBANO"
      },
      {
        "id": "962",
        "descripcion": "JORDANIA"
      },
      {
        "id": "963",
        "descripcion": "SIRIA"
      },
      {
        "id": "964",
        "descripcion": "IRAK"
      },
      {
        "id": "965",
        "descripcion": "KUWAIT"
      },
      {
        "id": "966",
        "descripcion": "ARABIA SAUDITA"
      },
      {
        "id": "967",
        "descripcion": "YEMEN"
      },
      {
        "id": "968",
        "descripcion": "OMAN"
      },
      {
        "id": "971",
        "descripcion": "EMIRATOS ARABES UNIDOS"
      },
      {
        "id": "972",
        "descripcion": "ISRAEL"
      },
      {
        "id": "973",
        "descripcion": "BAHRAIN"
      },
      {
        "id": "974",
        "descripcion": "QATAR"
      },
      {
        "id": "975",
        "descripcion": "BHUTAN"
      },
      {
        "id": "976",
        "descripcion": "MONGOLIA"
      },
      {
        "id": "977",
        "descripcion": "NEPAL"
      },
      {
        "id": "992",
        "descripcion": "ISLAS DEL CANAL"
      },
      {
        "id": "993",
        "descripcion": "TURKMENISTAN"
      },
      {
        "id": "994",
        "descripcion": "AZERBAIYAN"
      },
      {
        "id": "995",
        "descripcion": "GEORGIA"
      },
      {
        "id": "996",
        "descripcion": "KIRGUIZISTAN"
      },
      {
        "id": "997",
        "descripcion": "SAINT MARTIN"
      }
    ]
  }
}
